fir.vcd
$date
   Thu Oct 19 11:01:09 2023
$end
$version
  2022.1
$end
$timescale
  1ps
$end
$scope module fir_tb $end
$var wire 1 ! awready $end
$var wire 1 " wready $end
$var reg 1 # awvalid $end
$var reg 12 $ awaddr [11:0] $end
$var reg 1 % wvalid $end
$var reg 32 & wdata [31:0] $end
$var wire 1 ' arready $end
$var reg 1 ( rready $end
$var reg 1 ) arvalid $end
$var reg 12 * araddr [11:0] $end
$var wire 1 + rvalid $end
$var wire 32 , rdata [31:0] $end
$var reg 1 - axis_clk $end
$var reg 1 . axis_rst_n $end
$var wire 4 / tap_WE [3:0] $end
$var wire 1 0 tap_EN $end
$var wire 32 1 tap_Di [31:0] $end
$var wire 12 2 tap_A [11:0] $end
$var wire 32 3 tap_Do [31:0] $end
$var wire 4 4 data_WE [3:0] $end
$var wire 1 5 data_EN $end
$var wire 32 6 data_Di [31:0] $end
$var wire 12 7 data_A [11:0] $end
$var wire 32 8 data_Do [31:0] $end
$var reg 1 9 ss_tvalid $end
$var reg 32 : ss_tdata [31:0] $end
$var reg 1 ; ss_tlast $end
$var wire 1 < ss_tready $end
$var reg 1 = sm_tready $end
$var wire 1 > sm_tvalid $end
$var wire 32 ? sm_tdata [31:0] $end
$var wire 1 @ sm_tlast $end
$var reg 32 A data_length [31:0] $end
$var integer 32 B Din [31:0] $end
$var integer 32 C golden [31:0] $end
$var integer 32 D input_data [31:0] $end
$var integer 32 E golden_data [31:0] $end
$var integer 32 F m [31:0] $end
$var integer 32 G i [31:0] $end
$var integer 32 H k [31:0] $end
$var reg 1 I error $end
$var reg 1 J error_coef $end
$var integer 32 K timeout [31:0] $end
$scope module fir_DUT $end
$var wire 1 ! awready $end
$var wire 1 " wready $end
$var wire 1 L awvalid $end
$var wire 12 M awaddr [11:0] $end
$var wire 1 N wvalid $end
$var wire 32 O wdata [31:0] $end
$var wire 1 ' arready $end
$var wire 1 P rready $end
$var wire 1 Q arvalid $end
$var wire 12 R araddr [11:0] $end
$var wire 1 + rvalid $end
$var wire 32 , rdata [31:0] $end
$var wire 1 S ss_tvalid $end
$var wire 32 T ss_tdata [31:0] $end
$var wire 1 U ss_tlast $end
$var wire 1 < ss_tready $end
$var wire 1 V sm_tready $end
$var wire 1 > sm_tvalid $end
$var wire 32 ? sm_tdata [31:0] $end
$var wire 1 @ sm_tlast $end
$var wire 4 / tap_WE [3:0] $end
$var wire 1 0 tap_EN $end
$var wire 32 1 tap_Di [31:0] $end
$var wire 12 2 tap_A [11:0] $end
$var wire 32 3 tap_Do [31:0] $end
$var wire 4 4 data_WE [3:0] $end
$var wire 1 5 data_EN $end
$var wire 32 6 data_Di [31:0] $end
$var wire 12 7 data_A [11:0] $end
$var wire 32 8 data_Do [31:0] $end
$var wire 1 W axis_clk $end
$var wire 1 X axis_rst_n $end
$var wire 1 Y tap_finish $end
$var wire 1 Z valid $end
$var wire 1 [ rst $end
$var wire 1 \ tail $end
$var wire 1 ] last $end
$var wire 12 ^ tapaddr [11:0] $end
$var wire 1 _ tapen $end
$var wire 4 ` tapwe [3:0] $end
$scope module d1 $end
$var wire 4 4 data_WE [3:0] $end
$var wire 1 5 data_EN $end
$var wire 32 6 data_Di [31:0] $end
$var wire 12 7 data_A [11:0] $end
$var wire 1 Y tap_finish $end
$var wire 1 Z valid $end
$var wire 1 [ rst $end
$var wire 1 \ tail $end
$var wire 1 ] last $end
$var wire 1 S ss_tvalid $end
$var wire 32 T ss_tdata [31:0] $end
$var wire 1 U ss_tlast $end
$var wire 1 < ss_tready $end
$var wire 1 W axis_clk $end
$var wire 1 X axis_rst_n $end
$var reg 1 a tready $end
$var reg 5 b curr_state [4:0] $end
$var reg 5 c next_state [4:0] $end
$var reg 4 d ramwenin [3:0] $end
$var reg 32 e ramdatain [31:0] $end
$var reg 12 f ramaddrin [11:0] $end
$var reg 1 g ramenin $end
$var reg 1 h datavalid $end
$var reg 1 i datarst $end
$var reg 1 j datatail $end
$var reg 1 k datalast $end
$upscope $end
$scope module t1 $end
$var wire 1 ! awready $end
$var wire 1 " wready $end
$var wire 1 L awvalid $end
$var wire 12 M awaddr [11:0] $end
$var wire 1 N wvalid $end
$var wire 32 O wdata [31:0] $end
$var wire 1 ' arready $end
$var wire 1 P rready $end
$var wire 1 Q arvalid $end
$var wire 12 R araddr [11:0] $end
$var wire 1 + rvalid $end
$var wire 32 , rdata [31:0] $end
$var wire 1 W axis_clk $end
$var wire 1 X axis_rst_n $end
$var wire 4 ` tapwe [3:0] $end
$var wire 1 _ tapen $end
$var wire 32 1 tap_Di [31:0] $end
$var wire 12 ^ tapaddr [11:0] $end
$var wire 1 Y tap_finish $end
$var wire 1 @ sm_tlast $end
$var reg 3 l curr_state [2:0] $end
$var reg 3 m next_state [2:0] $end
$var reg 1 n checkfinish $end
$upscope $end
$scope module o1 $end
$var wire 1 W axis_clk $end
$var wire 1 X axis_rst_n $end
$var wire 32 3 tap_Do [31:0] $end
$var wire 32 8 data_Do [31:0] $end
$var wire 1 Z valid $end
$var wire 1 [ rst $end
$var wire 1 \ tail $end
$var wire 1 ] last $end
$var wire 1 V sm_tready $end
$var wire 1 > sm_tvalid $end
$var wire 32 ? sm_tdata [31:0] $end
$var wire 1 @ sm_tlast $end
$var reg 32 o outputdata [31:0] $end
$var reg 1 p outputvalid $end
$var reg 1 q outputlast $end
$upscope $end
$upscope $end
$scope module tap_RAM $end
$var wire 1 r CLK $end
$var wire 4 / WE [3:0] $end
$var wire 1 0 EN $end
$var wire 32 1 Di [31:0] $end
$var wire 32 3 Do [31:0] $end
$var wire 12 2 A [11:0] $end
$var reg 12 s r_A [11:0] $end
$upscope $end
$scope module data_RAM $end
$var wire 1 t CLK $end
$var wire 4 4 WE [3:0] $end
$var wire 1 5 EN $end
$var wire 32 6 Di [31:0] $end
$var wire 32 8 Do [31:0] $end
$var wire 12 7 A [11:0] $end
$var reg 12 u r_A [11:0] $end
$upscope $end
$scope task config_write $end
$var reg 12 v addr [11:0] $end
$var reg 32 w data [31:0] $end
$upscope $end
$scope task config_read_check $end
$var reg 12 x addr [11:0] $end
$var reg 32 y exp_data [31:0] $end
$var reg 32 z mask [31:0] $end
$upscope $end
$scope task ss $end
$var reg 32 { in1 [31:0] $end
$upscope $end
$scope task sm $end
$var reg 32 | in2 [31:0] $end
$var reg 32 } pcnt [31:0] $end
$upscope $end
$upscope $end
$enddefinitions $end
#0
$dumpvars
0!
0"
0#
bx $
0%
bx &
x'
x(
x)
bx *
x+
bx ,
0-
0.
bx /
x0
bx 1
b0xxxx00 2
bx 3
b0 4
05
b0 6
b0 7
b0 8
19
b1 :
0;
0<
1=
x>
bx ?
x@
b1001011000 A
b11111111111111111011000111100000 B
b11111111111111111011000111100001 C
b1 D
b1 E
b1001011000 F
b0 G
bx H
0I
0J
b110000110101000000 K
0L
bx M
0N
bx O
xP
xQ
bx R
1S
b1 T
0U
1V
0W
0X
0Y
0Z
0[
0\
0]
b0xxxx00 ^
x_
bx `
0a
b0 b
b0 c
b0 d
b0 e
b0 f
0g
0h
0i
0j
xk
b0 l
b1x m
0n
bx o
xp
xq
0r
bx s
0t
bx u
b10000 v
b1001011000 w
bx x
bx y
bx z
b1 {
bx |
bx }
$end
#5000
1!
1"
1#
b10000 $
1%
b1001011000 &
1-
bx 3
b0 8
0>
b0 ?
0@
b110000110100111111 K
1L
b10000 M
1N
b1001011000 O
1W
0a
b0 b
b0 d
b0 e
b0 f
0g
0h
0i
0j
b0 l
b1 m
0n
b0 o
0p
0q
1r
b0xxxx00 s
1t
b0 u
#10000
0-
0W
0r
0t
#15000
0!
0"
0#
0%
bx ,
1-
1.
x0
bx 1
b0xxxx00 2
b1111 4
15
b101000 7
bx 8
b0 H
b110000110100111110 K
0L
0N
1W
1X
0]
0a
b0 b
b1111 d
b0 e
b101000 f
1g
0h
0i
0j
0k
b1 l
b0 m
0n
b0 o
0p
0q
1r
b0xxxx00 s
1t
b0 u
b100000 v
b0 w
#20000
0-
0W
0r
0t
#25000
1!
1"
1#
b100000 $
1%
b0 &
1-
b0 8
b110000110100111101 K
1L
b100000 M
1N
b0 O
1W
0a
b0 b
b1111 d
b0 e
b101000 f
1g
0h
0i
0j
0k
b0 l
b1 m
0n
b0 o
0p
0q
1r
b0xxxx00 s
1t
b101000 u
#30000
0-
0W
0r
0t
#35000
0!
0"
0#
0%
bx ,
1-
bx 1
b1 H
b110000110100111100 K
0L
0N
1W
0a
b0 b
b1111 d
b0 e
b101000 f
1g
0h
0i
0j
0k
b1 l
b0 m
0n
b0 o
0p
0q
1r
b0xxxx00 s
1t
b101000 u
b100100 v
b11111111111111111111111111110110 w
#40000
0-
0W
0r
0t
#45000
1!
1"
1#
b100100 $
1%
b11111111111111111111111111110110 &
1-
b110000110100111011 K
1L
b100100 M
1N
b11111111111111111111111111110110 O
1W
0a
b0 b
b1111 d
b0 e
b101000 f
1g
0h
0i
0j
0k
b0 l
b1 m
0n
b0 o
0p
0q
1r
b0xxxx00 s
1t
b101000 u
#50000
0-
0W
0r
0t
#55000
0!
0"
0#
0%
bx ,
1-
bx 1
b10 H
b110000110100111010 K
0L
0N
1W
0a
b0 b
b1111 d
b0 e
b101000 f
1g
0h
0i
0j
0k
b1 l
b0 m
0n
b0 o
0p
0q
1r
b0xxxx00 s
1t
b101000 u
b101000 v
b11111111111111111111111111110111 w
#60000
0-
0W
0r
0t
#65000
1!
1"
1#
b101000 $
1%
b11111111111111111111111111110111 &
1-
b110000110100111001 K
1L
b101000 M
1N
b11111111111111111111111111110111 O
1W
0a
b0 b
b1111 d
b0 e
b101000 f
1g
0h
0i
0j
0k
b0 l
b1 m
0n
b0 o
0p
0q
1r
b0xxxx00 s
1t
b101000 u
#70000
0-
0W
0r
0t
#75000
0!
0"
0#
0%
bx ,
1-
bx 1
b11 H
b110000110100111000 K
0L
0N
1W
0a
b0 b
b1111 d
b0 e
b101000 f
1g
0h
0i
0j
0k
b1 l
b0 m
0n
b0 o
0p
0q
1r
b0xxxx00 s
1t
b101000 u
b101100 v
b10111 w
#80000
0-
0W
0r
0t
#85000
1!
1"
1#
b101100 $
1%
b10111 &
1-
b110000110100110111 K
1L
b101100 M
1N
b10111 O
1W
0a
b0 b
b1111 d
b0 e
b101000 f
1g
0h
0i
0j
0k
b0 l
b1 m
0n
b0 o
0p
0q
1r
b0xxxx00 s
1t
b101000 u
#90000
0-
0W
0r
0t
#95000
0!
0"
0#
0%
bx ,
1-
bx 1
b100 H
b110000110100110110 K
0L
0N
1W
0a
b0 b
b1111 d
b0 e
b101000 f
1g
0h
0i
0j
0k
b1 l
b0 m
0n
b0 o
0p
0q
1r
b0xxxx00 s
1t
b101000 u
b110000 v
b111000 w
#100000
0-
0W
0r
0t
#105000
1!
1"
1#
b110000 $
1%
b111000 &
1-
b110000110100110101 K
1L
b110000 M
1N
b111000 O
1W
0a
b0 b
b1111 d
b0 e
b101000 f
1g
0h
0i
0j
0k
b0 l
b1 m
0n
b0 o
0p
0q
1r
b0xxxx00 s
1t
b101000 u
#110000
0-
0W
0r
0t
#115000
0!
0"
0#
0%
bx ,
1-
bx 1
b101 H
b110000110100110100 K
0L
0N
1W
0a
b0 b
b1111 d
b0 e
b101000 f
1g
0h
0i
0j
0k
b1 l
b0 m
0n
b0 o
0p
0q
1r
b0xxxx00 s
1t
b101000 u
b110100 v
b111111 w
#120000
0-
0W
0r
0t
#125000
1!
1"
1#
b110100 $
1%
b111111 &
1-
b110000110100110011 K
1L
b110100 M
1N
b111111 O
1W
0a
b0 b
b1111 d
b0 e
b101000 f
1g
0h
0i
0j
0k
b0 l
b1 m
0n
b0 o
0p
0q
1r
b0xxxx00 s
1t
b101000 u
#130000
0-
0W
0r
0t
#135000
0!
0"
0#
0%
bx ,
1-
bx 1
b110 H
b110000110100110010 K
0L
0N
1W
0a
b0 b
b1111 d
b0 e
b101000 f
1g
0h
0i
0j
0k
b1 l
b0 m
0n
b0 o
0p
0q
1r
b0xxxx00 s
1t
b101000 u
b111000 v
b111000 w
#140000
0-
0W
0r
0t
#145000
1!
1"
1#
b111000 $
1%
b111000 &
1-
b110000110100110001 K
1L
b111000 M
1N
b111000 O
1W
0a
b0 b
b1111 d
b0 e
b101000 f
1g
0h
0i
0j
0k
b0 l
b1 m
0n
b0 o
0p
0q
1r
b0xxxx00 s
1t
b101000 u
#150000
0-
0W
0r
0t
#155000
0!
0"
0#
0%
bx ,
1-
bx 1
b111 H
b110000110100110000 K
0L
0N
1W
0a
b0 b
b1111 d
b0 e
b101000 f
1g
0h
0i
0j
0k
b1 l
b0 m
0n
b0 o
0p
0q
1r
b0xxxx00 s
1t
b101000 u
b111100 v
b10111 w
#160000
0-
0W
0r
0t
#165000
1!
1"
1#
b111100 $
1%
b10111 &
1-
b110000110100101111 K
1L
b111100 M
1N
b10111 O
1W
0a
b0 b
b1111 d
b0 e
b101000 f
1g
0h
0i
0j
0k
b0 l
b1 m
0n
b0 o
0p
0q
1r
b0xxxx00 s
1t
b101000 u
#170000
0-
0W
0r
0t
#175000
0!
0"
0#
0%
bx ,
1-
bx 1
b1000 H
b110000110100101110 K
0L
0N
1W
0a
b0 b
b1111 d
b0 e
b101000 f
1g
0h
0i
0j
0k
b1 l
b0 m
0n
b0 o
0p
0q
1r
b0xxxx00 s
1t
b101000 u
b1000000 v
b11111111111111111111111111110111 w
#180000
0-
0W
0r
0t
#185000
1!
1"
1#
b1000000 $
1%
b11111111111111111111111111110111 &
1-
b110000110100101101 K
1L
b1000000 M
1N
b11111111111111111111111111110111 O
1W
0a
b0 b
b1111 d
b0 e
b101000 f
1g
0h
0i
0j
0k
b0 l
b1 m
0n
b0 o
0p
0q
1r
b0xxxx00 s
1t
b101000 u
#190000
0-
0W
0r
0t
#195000
0!
0"
0#
0%
bx ,
1-
bx 1
b1001 H
b110000110100101100 K
0L
0N
1W
0a
b0 b
b1111 d
b0 e
b101000 f
1g
0h
0i
0j
0k
b1 l
b0 m
0n
b0 o
0p
0q
1r
b0xxxx00 s
1t
b101000 u
b1000100 v
b11111111111111111111111111110110 w
#200000
0-
0W
0r
0t
#205000
1!
1"
1#
b1000100 $
1%
b11111111111111111111111111110110 &
1-
b110000110100101011 K
1L
b1000100 M
1N
b11111111111111111111111111110110 O
1W
0a
b0 b
b1111 d
b0 e
b101000 f
1g
0h
0i
0j
0k
b0 l
b1 m
0n
b0 o
0p
0q
1r
b0xxxx00 s
1t
b101000 u
#210000
0-
0W
0r
0t
#215000
0!
0"
0#
0%
bx ,
1-
bx 1
b1010 H
b110000110100101010 K
0L
0N
1W
0a
b0 b
b1111 d
b0 e
b101000 f
1g
0h
0i
0j
0k
b1 l
b0 m
0n
b0 o
0p
0q
1r
b0xxxx00 s
1t
b101000 u
b1001000 v
b0 w
#220000
0-
0W
0r
0t
#225000
1!
1"
1#
b1001000 $
1%
b0 &
1-
b110000110100101001 K
1L
b1001000 M
1N
b0 O
1W
0a
b0 b
b1111 d
b0 e
b101000 f
1g
0h
0i
0j
0k
b0 l
b1 m
0n
b0 o
0p
0q
1r
b0xxxx00 s
1t
b101000 u
#230000
0-
0W
0r
0t
#235000
0!
0"
0#
0%
0'
0)
0+
b0 ,
1-
b0 /
00
b0 1
b0 2
b0 3
b0 H
b110000110100101000 K
0L
0N
0Q
1W
b0 ^
0_
b0 `
0a
b0 b
b1111 d
b0 e
b101000 f
1g
0h
0i
0j
0k
b1 l
b0 m
0n
b0 o
0p
0q
1r
b0xxxx00 s
1t
b101000 u
b100000 x
b0 y
b11111111111111111111111111111111 z
#240000
0-
0W
0r
0t
#245000
1'
1(
1)
b100000 *
1+
b0 ,
1-
b1111 /
10
b0 1
bx 3
b110000110100100111 K
1P
1Q
b100000 R
1W
b0 ^
1_
b1111 `
0a
b0 b
b1111 d
b0 e
b101000 f
1g
0h
0i
0j
0k
b0 l
b10 m
0n
b0 o
0p
0q
1r
b0 s
1t
b101000 u
#250000
0-
0W
0r
0t
#255000
0'
0)
0+
b0 ,
1-
b0 /
00
b0 1
b0 3
b1 H
b110000110100100110 K
0Q
1W
b0 ^
0_
b0 `
0a
b0 b
b1111 d
b0 e
b101000 f
1g
0h
0i
0j
0k
b10 l
b0 m
0n
b0 o
0p
0q
1r
b0 s
1t
b101000 u
b100100 x
b11111111111111111111111111110110 y
b11111111111111111111111111111111 z
#260000
0-
0W
0r
0t
#265000
1'
1(
1)
b100100 *
1+
b11111111111111111111111111110110 ,
1-
b1111 /
10
b11111111111111111111111111110110 1
b100 2
b0 3
b110000110100100101 K
1Q
b100100 R
1W
b100 ^
1_
b1111 `
0a
b0 b
b1111 d
b0 e
b101000 f
1g
0h
0i
0j
0k
b0 l
b10 m
0n
b0 o
0p
0q
1r
b0 s
1t
b101000 u
#270000
0-
0W
0r
0t
#275000
0'
0)
0+
b0 ,
1-
b0 /
00
b0 1
b0 2
b0 3
b10 H
b110000110100100100 K
0Q
1W
b0 ^
0_
b0 `
0a
b0 b
b1111 d
b0 e
b101000 f
1g
0h
0i
0j
0k
b10 l
b0 m
0n
b0 o
0p
0q
1r
b100 s
1t
b101000 u
b101000 x
b11111111111111111111111111110111 y
b11111111111111111111111111111111 z
#280000
0-
0W
0r
0t
#285000
1'
1(
1)
b101000 *
1+
b11111111111111111111111111110111 ,
1-
b1111 /
10
b11111111111111111111111111110111 1
b1000 2
b0 3
b110000110100100011 K
1Q
b101000 R
1W
b1000 ^
1_
b1111 `
0a
b0 b
b1111 d
b0 e
b101000 f
1g
0h
0i
0j
0k
b0 l
b10 m
0n
b0 o
0p
0q
1r
b0 s
1t
b101000 u
#290000
0-
0W
0r
0t
#295000
0'
0)
0+
b0 ,
1-
b0 /
00
b0 1
b0 2
b0 3
b11 H
b110000110100100010 K
0Q
1W
b0 ^
0_
b0 `
0a
b0 b
b1111 d
b0 e
b101000 f
1g
0h
0i
0j
0k
b10 l
b0 m
0n
b0 o
0p
0q
1r
b1000 s
1t
b101000 u
b101100 x
b10111 y
b11111111111111111111111111111111 z
#300000
0-
0W
0r
0t
#305000
1'
1(
1)
b101100 *
1+
b10111 ,
1-
b1111 /
10
b10111 1
b1100 2
b0 3
b110000110100100001 K
1Q
b101100 R
1W
b1100 ^
1_
b1111 `
0a
b0 b
b1111 d
b0 e
b101000 f
1g
0h
0i
0j
0k
b0 l
b10 m
0n
b0 o
0p
0q
1r
b0 s
1t
b101000 u
#310000
0-
0W
0r
0t
#315000
0'
0)
0+
b0 ,
1-
b0 /
00
b0 1
b0 2
b0 3
b100 H
b110000110100100000 K
0Q
1W
b0 ^
0_
b0 `
0a
b0 b
b1111 d
b0 e
b101000 f
1g
0h
0i
0j
0k
b10 l
b0 m
0n
b0 o
0p
0q
1r
b1100 s
1t
b101000 u
b110000 x
b111000 y
b11111111111111111111111111111111 z
#320000
0-
0W
0r
0t
#325000
1'
1(
1)
b110000 *
1+
b111000 ,
1-
b1111 /
10
b111000 1
b10000 2
b0 3
b110000110100011111 K
1Q
b110000 R
1W
b10000 ^
1_
b1111 `
0a
b0 b
b1111 d
b0 e
b101000 f
1g
0h
0i
0j
0k
b0 l
b10 m
0n
b0 o
0p
0q
1r
b0 s
1t
b101000 u
#330000
0-
0W
0r
0t
#335000
0'
0)
0+
b0 ,
1-
b0 /
00
b0 1
b0 2
b0 3
b101 H
b110000110100011110 K
0Q
1W
b0 ^
0_
b0 `
0a
b0 b
b1111 d
b0 e
b101000 f
1g
0h
0i
0j
0k
b10 l
b0 m
0n
b0 o
0p
0q
1r
b10000 s
1t
b101000 u
b110100 x
b111111 y
b11111111111111111111111111111111 z
#340000
0-
0W
0r
0t
#345000
1'
1(
1)
b110100 *
1+
b111111 ,
1-
b1111 /
10
b111111 1
b10100 2
b0 3
b110000110100011101 K
1Q
b110100 R
1W
b10100 ^
1_
b1111 `
0a
b0 b
b1111 d
b0 e
b101000 f
1g
0h
0i
0j
0k
b0 l
b10 m
0n
b0 o
0p
0q
1r
b0 s
1t
b101000 u
#350000
0-
0W
0r
0t
#355000
0'
0)
0+
b0 ,
1-
b0 /
00
b0 1
b0 2
b0 3
b110 H
b110000110100011100 K
0Q
1W
b0 ^
0_
b0 `
0a
b0 b
b1111 d
b0 e
b101000 f
1g
0h
0i
0j
0k
b10 l
b0 m
0n
b0 o
0p
0q
1r
b10100 s
1t
b101000 u
b111000 x
b111000 y
b11111111111111111111111111111111 z
#360000
0-
0W
0r
0t
#365000
1'
1(
1)
b111000 *
1+
b111000 ,
1-
b1111 /
10
b111000 1
b11000 2
b0 3
b110000110100011011 K
1Q
b111000 R
1W
b11000 ^
1_
b1111 `
0a
b0 b
b1111 d
b0 e
b101000 f
1g
0h
0i
0j
0k
b0 l
b10 m
0n
b0 o
0p
0q
1r
b0 s
1t
b101000 u
#370000
0-
0W
0r
0t
#375000
0'
0)
0+
b0 ,
1-
b0 /
00
b0 1
b0 2
b0 3
b111 H
b110000110100011010 K
0Q
1W
b0 ^
0_
b0 `
0a
b0 b
b1111 d
b0 e
b101000 f
1g
0h
0i
0j
0k
b10 l
b0 m
0n
b0 o
0p
0q
1r
b11000 s
1t
b101000 u
b111100 x
b10111 y
b11111111111111111111111111111111 z
#380000
0-
0W
0r
0t
#385000
1'
1(
1)
b111100 *
1+
b10111 ,
1-
b1111 /
10
b10111 1
b11100 2
b0 3
b110000110100011001 K
1Q
b111100 R
1W
b11100 ^
1_
b1111 `
0a
b0 b
b1111 d
b0 e
b101000 f
1g
0h
0i
0j
0k
b0 l
b10 m
0n
b0 o
0p
0q
1r
b0 s
1t
b101000 u
#390000
0-
0W
0r
0t
#395000
0'
0)
0+
b0 ,
1-
b0 /
00
b0 1
b0 2
b0 3
b1000 H
b110000110100011000 K
0Q
1W
b0 ^
0_
b0 `
0a
b0 b
b1111 d
b0 e
b101000 f
1g
0h
0i
0j
0k
b10 l
b0 m
0n
b0 o
0p
0q
1r
b11100 s
1t
b101000 u
b1000000 x
b11111111111111111111111111110111 y
b11111111111111111111111111111111 z
#400000
0-
0W
0r
0t
#405000
1'
1(
1)
b1000000 *
1+
b11111111111111111111111111110111 ,
1-
b1111 /
10
b11111111111111111111111111110111 1
b100000 2
b0 3
b110000110100010111 K
1Q
b1000000 R
1W
b100000 ^
1_
b1111 `
0a
b0 b
b1111 d
b0 e
b101000 f
1g
0h
0i
0j
0k
b0 l
b10 m
0n
b0 o
0p
0q
1r
b0 s
1t
b101000 u
#410000
0-
0W
0r
0t
#415000
0'
0)
0+
b0 ,
1-
b0 /
00
b0 1
b0 2
b0 3
b1001 H
b110000110100010110 K
0Q
1W
b0 ^
0_
b0 `
0a
b0 b
b1111 d
b0 e
b101000 f
1g
0h
0i
0j
0k
b10 l
b0 m
0n
b0 o
0p
0q
1r
b100000 s
1t
b101000 u
b1000100 x
b11111111111111111111111111110110 y
b11111111111111111111111111111111 z
#420000
0-
0W
0r
0t
#425000
1'
1(
1)
b1000100 *
1+
b11111111111111111111111111110110 ,
1-
b1111 /
10
b11111111111111111111111111110110 1
b100100 2
b0 3
b110000110100010101 K
1Q
b1000100 R
1W
b100100 ^
1_
b1111 `
0a
b0 b
b1111 d
b0 e
b101000 f
1g
0h
0i
0j
0k
b0 l
b10 m
0n
b0 o
0p
0q
1r
b0 s
1t
b101000 u
#430000
0-
0W
0r
0t
#435000
0'
0)
0+
b0 ,
1-
b0 /
00
b0 1
b0 2
b0 3
b1010 H
b110000110100010100 K
0Q
1W
b0 ^
0_
b0 `
0a
b0 b
b1111 d
b0 e
b101000 f
1g
0h
0i
0j
0k
b10 l
b0 m
0n
b0 o
0p
0q
1r
b100100 s
1t
b101000 u
b1001000 x
b0 y
b11111111111111111111111111111111 z
#440000
0-
0W
0r
0t
#445000
1'
1(
1)
b1001000 *
1+
b0 ,
1-
b1111 /
10
b0 1
b101000 2
b0 3
b110000110100010011 K
1Q
b1001000 R
1W
b101000 ^
1_
b1111 `
0a
b0 b
b1111 d
b0 e
b101000 f
1g
0h
0i
0j
0k
b0 l
b10 m
0n
b0 o
0p
0q
1r
b0 s
1t
b101000 u
#450000
0-
0W
0r
0t
#455000
0'
0)
0+
b0 ,
1-
b0 /
00
b0 1
b0 2
b0 3
b1011 H
b110000110100010010 K
0Q
1W
b0 ^
0_
b0 `
0a
b0 b
b1111 d
b0 e
b101000 f
1g
0h
0i
0j
0k
b10 l
b0 m
0n
b0 o
0p
0q
1r
b101000 s
1t
b101000 u
#460000
0-
0W
0r
0t
#465000
0#
0%
1-
b0 3
b110000110100010001 K
1W
0a
b0 b
b1111 d
b0 e
b101000 f
1g
0h
0i
0j
0k
b0 l
b11 m
0n
b0 o
0p
0q
1r
b0 s
1t
b101000 u
b0 v
b1 w
#470000
0-
0W
0r
0t
#475000
1!
1"
1#
b0 $
1%
b1 &
1-
b110000110100010000 K
1L
b0 M
1N
b1 O
1W
0a
b0 b
b1111 d
b0 e
b101000 f
1g
0h
0i
0j
0k
b11 l
b100 m
0n
b0 o
0p
0q
1r
b0 s
1t
b101000 u
#480000
0-
0W
0r
0t
#485000
b0 ,
1-
b0 /
10
b0 1
b101000 2
b0 3
b110000110100001111 K
1W
1Y
0a
b0 b
b1 c
b1111 d
b0 e
b101000 f
1g
0h
0i
0j
0k
b100 l
b100 m
1n
b0 o
0p
0q
1r
b0 s
1t
b101000 u
#490000
0-
0W
0r
0t
#495000
b0 ,
1-
b0 1
b0 3
b110000110100001110 K
1W
0a
b1 b
b10 c
b1111 d
b0 e
b101000 f
1g
0h
0i
0j
0k
b100 l
1n
b0 o
0p
0q
1r
b101000 s
1t
b101000 u
#500000
0-
0W
0r
0t
#505000
b0 ,
1-
b0 1
b100100 2
b100100 7
b110000110100001101 K
1W
0a
b10 b
b11 c
b1111 d
b0 e
b100100 f
1g
0h
0i
0j
0k
b100 l
1n
b0 o
0p
0q
1r
b101000 s
1t
b101000 u
#510000
0-
0W
0r
0t
#515000
b0 ,
1-
b0 1
b100000 2
b11111111111111111111111111110110 3
b100000 7
b0 8
b110000110100001100 K
1W
0a
b11 b
b100 c
b1111 d
b0 e
b100000 f
1g
0h
0i
0j
0k
b100 l
1n
b0 o
0p
0q
1r
b100100 s
1t
b100100 u
#520000
0-
0W
0r
0t
#525000
b0 ,
1-
b0 1
b11100 2
b11111111111111111111111111110111 3
b11100 7
b0 8
b110000110100001011 K
1W
0a
b100 b
b101 c
b1111 d
b0 e
b11100 f
1g
0h
0i
0j
0k
b100 l
1n
b0 o
0p
0q
1r
b100000 s
1t
b100000 u
#530000
0-
0W
0r
0t
#535000
b0 ,
1-
b0 1
b11000 2
b10111 3
b11000 7
b0 8
b110000110100001010 K
1W
0a
b101 b
b110 c
b1111 d
b0 e
b11000 f
0h
0i
0j
0k
b100 l
1n
b0 o
0p
0q
1r
b11100 s
1t
b11100 u
#540000
0-
0W
0r
0t
#545000
b0 ,
1-
b0 1
b10100 2
b111000 3
b10100 7
b0 8
b110000110100001001 K
1W
0a
b110 b
b111 c
b1111 d
b0 e
b10100 f
1g
0h
0i
0j
0k
b100 l
1n
b0 o
0p
0q
1r
b11000 s
1t
b11000 u
#550000
0-
0W
0r
0t
#555000
b0 ,
1-
b0 1
b10000 2
b111111 3
b10000 7
b0 8
b110000110100001000 K
1W
0a
b111 b
b1000 c
b1111 d
b0 e
b10000 f
1g
0h
0i
0j
0k
b100 l
1n
b0 o
0p
0q
1r
b10100 s
1t
b10100 u
#560000
0-
0W
0r
0t
#565000
b0 ,
1-
b0 1
b1100 2
b111000 3
b1100 7
b0 8
b110000110100000111 K
1W
0a
b1000 b
b1001 c
b1111 d
b0 e
b1100 f
1g
0h
0i
0j
0k
b100 l
1n
b0 o
0p
0q
1r
b10000 s
1t
b10000 u
#570000
0-
0W
0r
0t
#575000
b0 ,
1-
b0 1
b1000 2
b10111 3
b1000 7
b0 8
b110000110100000110 K
1W
0a
b1001 b
b1010 c
b1111 d
b0 e
b1000 f
1g
0h
0i
0j
0k
b100 l
1n
b0 o
0p
0q
1r
b1100 s
1t
b1100 u
#580000
0-
0W
0r
0t
#585000
b0 ,
1-
b0 1
b100 2
b11111111111111111111111111110111 3
b100 7
b0 8
b110000110100000101 K
1W
0a
b1010 b
b1011 c
b1111 d
b0 e
b100 f
0h
0i
0j
0k
b100 l
1n
b0 o
0p
0q
1r
b1000 s
1t
b1000 u
#590000
0-
0W
0r
0t
#595000
b0 ,
1-
b0 1
b0 2
b11111111111111111111111111110110 3
b0 4
b0 7
b0 8
b110000110100000100 K
1W
0a
b1011 b
b1100 c
b0 d
b0 e
b0 f
1g
0h
0i
0j
0k
b100 l
1n
b0 o
0p
0q
1r
b100 s
1t
b100 u
#600000
0-
0W
0r
0t
#605000
b0 ,
1-
b0 1
b0 3
b1 6
bx 8
b110000110100000011 K
1W
0a
b1100 b
b1101 c
b0 d
b1 e
b0 f
1g
0h
0i
0j
b100 l
1n
b0 o
0p
0q
1r
b0 s
1t
b0 u
#610000
0-
0W
0r
0t
#615000
b0 ,
1-
b0 1
b1111 4
1<
b110000110100000010 K
1W
1a
b1101 b
b1110 c
b1111 d
b1 e
b0 f
0h
0i
0j
b100 l
1n
b0 o
0p
0q
1r
b0 s
1t
b0 u
#620000
0-
0W
0r
0t
#625000
b0 ,
1-
b0 1
b0 4
b1 8
19
b10 :
0<
b1 G
b110000110100000001 K
b10 T
1W
0a
b1110 b
b1111 c
b0 d
0h
0i
0j
b100 l
1n
b0 o
0p
0q
1r
b0 s
1t
b0 u
b10 {
#630000
0-
0W
0r
0t
#635000
b0 ,
1-
b0 1
b110000110100000000 K
1W
1[
0a
b1111 b
b10000 c
b0 d
b0 f
1g
0h
1i
0j
b100 l
1n
b0 o
0p
0q
1r
b0 s
1t
b0 u
#640000
0-
0W
0r
0t
