optimization/fir.vcd
$date
   Tue Oct 31 02:09:16 2023
$end
$version
  2022.1
$end
$timescale
  1ps
$end
$scope module fir_tb $end
$var wire 1 ! awready $end
$var wire 1 " wready $end
$var reg 1 # awvalid $end
$var reg 12 $ awaddr [11:0] $end
$var reg 1 % wvalid $end
$var reg 32 & wdata [31:0] $end
$var wire 1 ' arready $end
$var reg 1 ( rready $end
$var reg 1 ) arvalid $end
$var reg 12 * araddr [11:0] $end
$var wire 1 + rvalid $end
$var wire 32 , rdata [31:0] $end
$var reg 1 - axis_clk $end
$var reg 1 . axis_rst_n $end
$var wire 4 / tap_WE [3:0] $end
$var wire 1 0 tap_EN $end
$var wire 32 1 tap_Di [31:0] $end
$var wire 12 2 tap_A [11:0] $end
$var wire 32 3 tap_Do [31:0] $end
$var wire 4 4 data_WE [3:0] $end
$var wire 1 5 data_EN $end
$var wire 32 6 data_Di [31:0] $end
$var wire 12 7 data_A [11:0] $end
$var wire 32 8 data_Do [31:0] $end
$var reg 1 9 ss_tvalid $end
$var reg 32 : ss_tdata [31:0] $end
$var reg 1 ; ss_tlast $end
$var wire 1 < ss_tready $end
$var reg 1 = sm_tready $end
$var wire 1 > sm_tvalid $end
$var wire 32 ? sm_tdata [31:0] $end
$var wire 1 @ sm_tlast $end
$var reg 32 A data_length [31:0] $end
$var integer 32 B Din [31:0] $end
$var integer 32 C golden [31:0] $end
$var integer 32 D input_data [31:0] $end
$var integer 32 E golden_data [31:0] $end
$var integer 32 F m [31:0] $end
$var integer 32 G i [31:0] $end
$var integer 32 H k [31:0] $end
$var reg 1 I error $end
$var reg 1 J error_coef $end
$var integer 32 K timeout [31:0] $end
$scope module fir_DUT $end
$var wire 1 ! awready $end
$var wire 1 " wready $end
$var wire 1 L awvalid $end
$var wire 12 M awaddr [11:0] $end
$var wire 1 N wvalid $end
$var wire 32 O wdata [31:0] $end
$var wire 1 ' arready $end
$var wire 1 P rready $end
$var wire 1 Q arvalid $end
$var wire 12 R araddr [11:0] $end
$var wire 1 + rvalid $end
$var wire 32 , rdata [31:0] $end
$var wire 1 S ss_tvalid $end
$var wire 32 T ss_tdata [31:0] $end
$var wire 1 U ss_tlast $end
$var wire 1 < ss_tready $end
$var wire 1 V sm_tready $end
$var wire 1 > sm_tvalid $end
$var wire 32 ? sm_tdata [31:0] $end
$var wire 1 @ sm_tlast $end
$var wire 4 / tap_WE [3:0] $end
$var wire 1 0 tap_EN $end
$var wire 32 1 tap_Di [31:0] $end
$var wire 12 2 tap_A [11:0] $end
$var wire 32 3 tap_Do [31:0] $end
$var wire 4 4 data_WE [3:0] $end
$var wire 1 5 data_EN $end
$var wire 32 6 data_Di [31:0] $end
$var wire 12 7 data_A [11:0] $end
$var wire 32 8 data_Do [31:0] $end
$var wire 1 W axis_clk $end
$var wire 1 X axis_rst_n $end
$var wire 1 Y tap_finish $end
$var wire 12 Z tap_addr [11:0] $end
$var wire 1 [ valid $end
$var wire 1 \ rst $end
$var wire 1 ] tail $end
$var wire 1 ^ last $end
$var wire 12 _ tapaddr [11:0] $end
$var wire 1 ` tapen $end
$var wire 4 a tapwe [3:0] $end
$scope module d1 $end
$var wire 4 4 data_WE [3:0] $end
$var wire 1 5 data_EN $end
$var wire 32 6 data_Di [31:0] $end
$var wire 12 7 data_A [11:0] $end
$var wire 1 Y tap_finish $end
$var wire 12 Z tap_addr [11:0] $end
$var wire 1 [ valid $end
$var wire 1 \ rst $end
$var wire 1 ] tail $end
$var wire 1 ^ last $end
$var wire 1 S ss_tvalid $end
$var wire 32 T ss_tdata [31:0] $end
$var wire 1 U ss_tlast $end
$var wire 1 < ss_tready $end
$var wire 1 W axis_clk $end
$var wire 1 X axis_rst_n $end
$var reg 1 b tready $end
$var reg 5 c curr_state [4:0] $end
$var reg 5 d next_state [4:0] $end
$var reg 4 e ramwenin [3:0] $end
$var reg 32 f ramdatain [31:0] $end
$var reg 12 g ramaddrin [11:0] $end
$var reg 1 h ramenin $end
$var reg 1 i datavalid $end
$var reg 1 j datarst $end
$var reg 1 k datatail $end
$var reg 1 l datalast $end
$var reg 11 m ptr [10:0] $end
$var reg 12 n tapramaddrin [11:0] $end
$upscope $end
$scope module t1 $end
$var wire 1 ! awready $end
$var wire 1 " wready $end
$var wire 1 L awvalid $end
$var wire 12 M awaddr [11:0] $end
$var wire 1 N wvalid $end
$var wire 32 O wdata [31:0] $end
$var wire 1 ' arready $end
$var wire 1 P rready $end
$var wire 1 Q arvalid $end
$var wire 12 R araddr [11:0] $end
$var wire 1 + rvalid $end
$var wire 32 , rdata [31:0] $end
$var wire 1 W axis_clk $end
$var wire 1 X axis_rst_n $end
$var wire 4 a tapwe [3:0] $end
$var wire 1 ` tapen $end
$var wire 32 1 tap_Di [31:0] $end
$var wire 12 _ tapaddr [11:0] $end
$var wire 1 Y tap_finish $end
$var wire 32 3 tap_Do [31:0] $end
$var wire 1 @ sm_tlast $end
$var reg 32 o mem [31:0] $end
$var reg 3 p curr_state [2:0] $end
$var reg 3 q next_state [2:0] $end
$var reg 1 r checkfinish $end
$var reg 1 s writefinish $end
$var reg 1 t readfinish $end
$var reg 1 u readvalid $end
$upscope $end
$scope module o1 $end
$var wire 1 W axis_clk $end
$var wire 1 X axis_rst_n $end
$var wire 32 3 tap_Do [31:0] $end
$var wire 32 8 data_Do [31:0] $end
$var wire 1 [ valid $end
$var wire 1 \ rst $end
$var wire 1 ] tail $end
$var wire 1 ^ last $end
$var wire 1 V sm_tready $end
$var wire 1 > sm_tvalid $end
$var wire 32 ? sm_tdata [31:0] $end
$var wire 1 @ sm_tlast $end
$var reg 32 v outputdata [31:0] $end
$var reg 1 w outputvalid $end
$var reg 1 x outputlast $end
$upscope $end
$upscope $end
$scope module tap_RAM $end
$var wire 1 y CLK $end
$var wire 4 / WE [3:0] $end
$var wire 1 0 EN $end
$var wire 32 1 Di [31:0] $end
$var wire 32 3 Do [31:0] $end
$var wire 12 2 A [11:0] $end
$var reg 12 z r_A [11:0] $end
$upscope $end
$scope module data_RAM $end
$var wire 1 { CLK $end
$var wire 4 4 WE [3:0] $end
$var wire 1 5 EN $end
$var wire 32 6 Di [31:0] $end
$var wire 32 8 Do [31:0] $end
$var wire 12 7 A [11:0] $end
$var reg 12 | r_A [11:0] $end
$upscope $end
$scope task config_write $end
$var reg 12 } addr [11:0] $end
$var reg 32 ~ data [31:0] $end
$upscope $end
$scope task config_read_check $end
$var reg 12 !! addr [11:0] $end
$var reg 32 "! exp_data [31:0] $end
$var reg 32 #! mask [31:0] $end
$upscope $end
$scope task ss $end
$var reg 32 $! in1 [31:0] $end
$upscope $end
$scope task sm $end
$var reg 32 %! in2 [31:0] $end
$var reg 32 &! pcnt [31:0] $end
$upscope $end
$upscope $end
$enddefinitions $end
#0
$dumpvars
0!
bx !!
0"
bx "!
0#
bx #!
bx $
b1 $!
0%
bx %!
bx &
bx &!
x'
x(
x)
bx *
0+
b0 ,
0-
0.
b0 /
00
b0 1
b0xxxx00 2
b0 3
b0 4
05
b0 6
b0 7
b0 8
19
b1 :
0;
0<
1=
x>
bx ?
x@
b1001011000 A
b11111111111111111011000111100000 B
b11111111111111111011000111100001 C
b1 D
b1 E
b1001011000 F
b0 G
bx H
0I
0J
b110000110101000000 K
0L
bx M
0N
bx O
xP
xQ
bx R
1S
b1 T
0U
1V
0W
0X
0Y
b0 Z
0[
0\
0]
0^
b0xxxx00 _
0`
b0 a
0b
b0 c
b1 d
b0 e
b0 f
b0 g
0h
0i
0j
0k
xl
b0 m
b0 n
bx o
b0 p
b0x0 q
0r
0s
0t
0u
bx v
xw
xx
0y
bx z
0{
bx |
b10000 }
b1001011000 ~
$end
#5000
1!
1"
1#
b10000 $
1%
b1001011000 &
1-
b1111 /
b1001011000 1
b10000 2
b0 3
b0 8
0>
b0 ?
0@
b110000110100111111 K
1L
b10000 M
1N
b1001011000 O
1W
b10000 _
b1111 a
0b
b0 c
b0 e
b0 f
b0 g
0h
0i
0j
0k
b0 m
b0 n
bx o
b0 p
b1 q
0r
0s
0t
0u
b0 v
0w
0x
1y
b0xxxx00 z
1{
b0 |
#10000
0-
0W
0y
0{
#15000
0!
0"
0#
0%
b0 ,
1-
1.
b0 /
00
b0 1
b0xxxx00 2
b0 3
b1111 4
15
bx 8
b0 H
b110000110100111110 K
0L
0N
1W
1X
0^
b0xxxx00 _
b0 a
0b
b1 c
b10 d
b1111 e
b0 f
b0 g
1h
0i
0j
0k
0l
b1001011000 o
b1 p
b0 q
0r
0u
b0 v
0w
0x
1y
b10000 z
1{
b0 |
b100000 }
b0 ~
#20000
0-
0W
0y
0{
#25000
1!
1"
1#
b100000 $
1%
b0 &
bx ,
1-
b1111 /
10
b0 1
b0 2
bx 3
b100 7
b0 8
b110000110100111101 K
1L
b100000 M
1N
b0 O
1W
b0 _
1`
b1111 a
0b
b10 c
b11 d
b1111 e
b0 f
b100 g
1h
0i
0j
0k
0l
b1001011000 o
b0 p
b1 q
0r
1s
b0 v
0w
0x
1y
b0xxxx00 z
1{
b0 |
#30000
0-
0W
0y
0{
#35000
0!
0"
0#
0%
b0 ,
1-
b0 /
b0 1
b0xxxx00 2
b0 3
b1000 7
b0 8
b1 H
b110000110100111100 K
0L
0N
1W
b0xxxx00 _
b0 a
0b
b11 c
b100 d
b1111 e
b0 f
b1000 g
1h
0i
0j
0k
0l
b0 o
b1 p
b0 q
0r
0u
b0 v
0w
0x
1y
b0 z
1{
b100 |
b100100 }
b11111111111111111111111111110110 ~
#40000
0-
0W
0y
0{
#45000
1!
1"
1#
b100100 $
1%
b11111111111111111111111111110110 &
bx ,
1-
b1111 /
b11111111111111111111111111110110 1
b100 2
bx 3
b1100 7
b0 8
b110000110100111011 K
1L
b100100 M
1N
b11111111111111111111111111110110 O
1W
b100 _
b1111 a
0b
b100 c
b101 d
b1111 e
b0 f
b1100 g
1h
0i
0j
0k
0l
b0 o
b0 p
b1 q
0r
1s
b0 v
0w
0x
1y
b0xxxx00 z
1{
b1000 |
#50000
0-
0W
0y
0{
#55000
0!
0"
0#
0%
bx0xx0 ,
1-
b0 /
b0 1
b0xxxx00 2
b11111111111111111111111111110110 3
b10000 7
b0 8
b10 H
b110000110100111010 K
0L
0N
1W
b0xxxx00 _
b0 a
0b
b101 c
b110 d
b1111 e
b0 f
b10000 g
0i
0j
0k
0l
b11111111111111111111111111110110 o
b1 p
b0 q
0r
0u
b0 v
0w
0x
1y
b100 z
1{
b1100 |
b101000 }
b11111111111111111111111111110111 ~
#60000
0-
0W
0y
0{
#65000
1!
1"
1#
b101000 $
1%
b11111111111111111111111111110111 &
bx ,
1-
b1111 /
b11111111111111111111111111110111 1
b1000 2
bx 3
b10100 7
b0 8
b110000110100111001 K
1L
b101000 M
1N
b11111111111111111111111111110111 O
1W
b1000 _
b1111 a
0b
b110 c
b111 d
b1111 e
b0 f
b10100 g
1h
0i
0j
0k
0l
b11111111111111111111111111110110 o
b0 p
b1 q
0r
1s
b0 v
0w
0x
1y
b0xxxx00 z
1{
b10000 |
#70000
0-
0W
0y
0{
#75000
0!
0"
0#
0%
bx0xxx ,
1-
b0 /
b0 1
b0xxxx00 2
b11111111111111111111111111110111 3
b11000 7
b0 8
b11 H
b110000110100111000 K
0L
0N
1W
b0xxxx00 _
b0 a
0b
b111 c
b1000 d
b1111 e
b0 f
b11000 g
1h
0i
0j
0k
0l
b11111111111111111111111111110111 o
b1 p
b0 q
0r
0u
b0 v
0w
0x
1y
b1000 z
1{
b10100 |
b101100 }
b10111 ~
#80000
0-
0W
0y
0{
#85000
1!
1"
1#
b101100 $
1%
b10111 &
bx ,
1-
b1111 /
b10111 1
b1100 2
bx 3
b11100 7
b0 8
b110000110100110111 K
1L
b101100 M
1N
b10111 O
1W
b1100 _
b1111 a
0b
b1000 c
b1001 d
b1111 e
b0 f
b11100 g
1h
0i
0j
0k
0l
b11111111111111111111111111110111 o
b0 p
b1 q
0r
1s
b0 v
0w
0x
1y
b0xxxx00 z
1{
b11000 |
#90000
0-
0W
0y
0{
#95000
0!
0"
0#
0%
b0x0xxx ,
1-
b0 /
b0 1
b0xxxx00 2
b10111 3
b100000 7
b0 8
b100 H
b110000110100110110 K
0L
0N
1W
b0xxxx00 _
b0 a
0b
b1001 c
b1010 d
b1111 e
b0 f
b100000 g
1h
0i
0j
0k
0l
b10111 o
b1 p
b0 q
0r
0u
b0 v
0w
0x
1y
b1100 z
1{
b11100 |
b110000 }
b111000 ~
#100000
0-
0W
0y
0{
#105000
1!
1"
1#
b110000 $
1%
b111000 &
bx ,
1-
b1111 /
b111000 1
b10000 2
bx 3
b100100 7
b0 8
b110000110100110101 K
1L
b110000 M
1N
b111000 O
1W
b10000 _
b1111 a
0b
b1010 c
b1010 d
b1111 e
b0 f
b100100 g
0i
0j
0k
0l
b10111 o
b0 p
b1 q
0r
1s
b0 v
0w
0x
1y
b0xxxx00 z
1{
b100000 |
#110000
0-
0W
0y
0{
#115000
0!
0"
0#
0%
b0xxx000 ,
1-
b0 /
b0 1
b0xxxx00 2
b111000 3
b101000 7
b0 8
b101 H
b110000110100110100 K
0L
0N
1W
b0xxxx00 _
b0 a
0b
b1010 c
b1111 e
b0 f
b101000 g
1h
0i
0j
0k
0l
b111000 o
b1 p
b0 q
0r
0u
b0 v
0w
0x
1y
b10000 z
1{
b100100 |
b110100 }
b111111 ~
#120000
0-
0W
0y
0{
#125000
1!
1"
1#
b110100 $
1%
b111111 &
bx ,
1-
b1111 /
b111111 1
b10100 2
bx 3
b0 8
b110000110100110011 K
1L
b110100 M
1N
b111111 O
1W
b10100 _
b1111 a
0b
b1010 c
b1111 e
b0 f
b101000 g
1h
0i
0j
0k
0l
b111000 o
b0 p
b1 q
0r
1s
b0 v
0w
0x
1y
b0xxxx00 z
1{
b101000 |
#130000
0-
0W
0y
0{
#135000
0!
0"
0#
0%
b0xxxxxx ,
1-
b0 /
b0 1
b0xxxx00 2
b111111 3
b110 H
b110000110100110010 K
0L
0N
1W
b0xxxx00 _
b0 a
0b
b1010 c
b1111 e
b0 f
b101000 g
1h
0i
0j
0k
0l
b111111 o
b1 p
b0 q
0r
0u
b0 v
0w
0x
1y
b10100 z
1{
b101000 |
b111000 }
b111000 ~
#140000
0-
0W
0y
0{
#145000
1!
1"
1#
b111000 $
1%
b111000 &
bx ,
1-
b1111 /
b111000 1
b11000 2
bx 3
b110000110100110001 K
1L
b111000 M
1N
b111000 O
1W
b11000 _
b1111 a
0b
b1010 c
b1111 e
b0 f
b101000 g
1h
0i
0j
0k
0l
b111111 o
b0 p
b1 q
0r
1s
b0 v
0w
0x
1y
b0xxxx00 z
1{
b101000 |
#150000
0-
0W
0y
0{
#155000
0!
0"
0#
0%
b0xxx000 ,
1-
b0 /
b0 1
b0xxxx00 2
b111000 3
b111 H
b110000110100110000 K
0L
0N
1W
b0xxxx00 _
b0 a
0b
b1010 c
b1111 e
b0 f
b101000 g
1h
0i
0j
0k
0l
b111000 o
b1 p
b0 q
0r
0u
b0 v
0w
0x
1y
b11000 z
1{
b101000 |
b111100 }
b10111 ~
#160000
0-
0W
0y
0{
#165000
1!
1"
1#
b111100 $
1%
b10111 &
bx ,
1-
b1111 /
b10111 1
b11100 2
bx 3
b110000110100101111 K
1L
b111100 M
1N
b10111 O
1W
b11100 _
b1111 a
0b
b1010 c
b1111 e
b0 f
b101000 g
1h
0i
0j
0k
0l
b111000 o
b0 p
b1 q
0r
1s
b0 v
0w
0x
1y
b0xxxx00 z
1{
b101000 |
#170000
0-
0W
0y
0{
#175000
0!
0"
0#
0%
b0x0xxx ,
1-
b0 /
b0 1
b0xxxx00 2
b10111 3
b1000 H
b110000110100101110 K
0L
0N
1W
b0xxxx00 _
b0 a
0b
b1010 c
b1111 e
b0 f
b101000 g
1h
0i
0j
0k
0l
b10111 o
b1 p
b0 q
0r
0u
b0 v
0w
0x
1y
b11100 z
1{
b101000 |
b1000000 }
b11111111111111111111111111110111 ~
#180000
0-
0W
0y
0{
#185000
1!
1"
1#
b1000000 $
1%
b11111111111111111111111111110111 &
bx ,
1-
b1111 /
b11111111111111111111111111110111 1
b100000 2
bx 3
b110000110100101101 K
1L
b1000000 M
1N
b11111111111111111111111111110111 O
1W
b100000 _
b1111 a
0b
b1010 c
b1111 e
b0 f
b101000 g
1h
0i
0j
0k
0l
b10111 o
b0 p
b1 q
0r
1s
b0 v
0w
0x
1y
b0xxxx00 z
1{
b101000 |
#190000
0-
0W
0y
0{
#195000
0!
0"
0#
0%
bx0xxx ,
1-
b0 /
b0 1
b0xxxx00 2
b11111111111111111111111111110111 3
b1001 H
b110000110100101100 K
0L
0N
1W
b0xxxx00 _
b0 a
0b
b1010 c
b1111 e
b0 f
b101000 g
1h
0i
0j
0k
0l
b11111111111111111111111111110111 o
b1 p
b0 q
0r
0u
b0 v
0w
0x
1y
b100000 z
1{
b101000 |
b1000100 }
b11111111111111111111111111110110 ~
#200000
0-
0W
0y
0{
#205000
1!
1"
1#
b1000100 $
1%
b11111111111111111111111111110110 &
bx ,
1-
b1111 /
b11111111111111111111111111110110 1
b100100 2
bx 3
b110000110100101011 K
1L
b1000100 M
1N
b11111111111111111111111111110110 O
1W
b100100 _
b1111 a
0b
b1010 c
b1111 e
b0 f
b101000 g
1h
0i
0j
0k
0l
b11111111111111111111111111110111 o
b0 p
b1 q
0r
1s
b0 v
0w
0x
1y
b0xxxx00 z
1{
b101000 |
#210000
0-
0W
0y
0{
#215000
0!
0"
0#
0%
bx0xx0 ,
1-
b0 /
b0 1
b0xxxx00 2
b11111111111111111111111111110110 3
b1010 H
b110000110100101010 K
0L
0N
1W
b0xxxx00 _
b0 a
0b
b1010 c
b1111 e
b0 f
b101000 g
1h
0i
0j
0k
0l
b11111111111111111111111111110110 o
b1 p
b0 q
0r
0u
b0 v
0w
0x
1y
b100100 z
1{
b101000 |
b1001000 }
b0 ~
#220000
0-
0W
0y
0{
#225000
1!
1"
1#
b1001000 $
1%
b0 &
bx ,
1-
b1111 /
b0 1
b101000 2
bx 3
b110000110100101001 K
1L
b1001000 M
1N
b0 O
1W
b101000 _
b1111 a
0b
b1010 c
b1111 e
b0 f
b101000 g
1h
0i
0j
0k
0l
b11111111111111111111111111110110 o
b0 p
b1 q
0r
1s
b0 v
0w
0x
1y
b0xxxx00 z
1{
b101000 |
#230000
0-
0W
0y
0{
#235000
0!
b100000 !!
0"
b0 "!
0#
b11111111111111111111111111111111 #!
0%
0'
0)
0+
b0 ,
1-
b0 /
b0 1
b0xxxx00 2
b0 3
b0 H
b110000110100101000 K
0L
0N
0Q
1W
b0xxxx00 _
b0 a
0b
b1010 c
b1111 e
b0 f
b101000 g
1h
0i
0j
0k
0l
b0 o
b1 p
b0 q
0r
0u
b0 v
0w
0x
1y
b101000 z
1{
b101000 |
#240000
0-
0W
0y
0{
#245000
1'
1(
1)
b100000 *
0+
bx ,
1-
b0 2
bx 3
b110000110100100111 K
1P
1Q
b100000 R
1W
b0 _
0b
b1010 c
b1111 e
b0 f
b101000 g
1h
0i
0j
0k
0l
b0 o
b0 p
b10 q
0r
1s
b0 v
0w
0x
1y
b0xxxx00 z
1{
b101000 |
#250000
0-
0W
0y
0{
#255000
b0 ,
1-
b0 3
b110000110100100110 K
1W
0b
b1010 c
b1111 e
b0 f
b101000 g
1h
0i
0j
0k
0l
b0 o
b10 p
b11 q
0r
0u
b0 v
0w
0x
1y
b0 z
1{
b101000 |
#260000
0-
0W
0y
0{
#265000
1-
b0 1
b110000110100100101 K
1W
1`
0b
b1010 c
b1111 e
b0 f
b101000 g
1h
0i
0j
0k
0l
b0 o
b11 p
b0 q
0r
0s
1t
0u
b0 v
0w
0x
1y
b0 z
1{
b101000 |
#270000
0-
0W
0y
0{
#275000
1+
1-
b110000110100100100 K
1W
0b
b1010 c
b1111 e
b0 f
b101000 g
1h
0i
0j
0k
0l
b0 o
b0 p
b10 q
0r
0s
1t
1u
b0 v
0w
0x
1y
b0 z
1{
b101000 |
#280000
0-
0W
0y
0{
#285000
b100100 !!
b11111111111111111111111111110110 "!
b11111111111111111111111111111111 #!
0'
0)
0+
1-
b1 H
b110000110100100011 K
0Q
1W
0b
b1010 c
b1111 e
b0 f
b101000 g
1h
0i
0j
0k
0l
b0 o
b10 p
b11 q
0r
0u
b0 v
0w
0x
1y
b0 z
1{
b101000 |
#290000
0-
0W
0y
0{
#295000
1'
1(
1)
b100100 *
0+
1-
b100 2
b110000110100100010 K
1Q
b100100 R
1W
b100 _
0b
b1010 c
b1111 e
b0 f
b101000 g
1h
0i
0j
0k
0l
b0 o
b11 p
b0 q
0r
0s
1t
0u
b0 v
0w
0x
1y
b0 z
1{
b101000 |
#300000
0-
0W
0y
0{
#305000
1+
b11111111111111111111111111110110 ,
1-
b11111111111111111111111111110110 3
b110000110100100001 K
1W
0b
b1010 c
b1111 e
b0 f
b101000 g
1h
0i
0j
0k
0l
b0 o
b0 p
b10 q
0r
0s
1t
1u
b0 v
0w
0x
1y
b100 z
1{
b101000 |
#310000
0-
0W
0y
0{
#315000
b101000 !!
b11111111111111111111111111110111 "!
b11111111111111111111111111111111 #!
0'
0)
0+
1-
b10 H
b110000110100100000 K
0Q
1W
0b
b1010 c
b1111 e
b0 f
b101000 g
1h
0i
0j
0k
0l
b0 o
b10 p
b11 q
0r
0u
b0 v
0w
0x
1y
b100 z
1{
b101000 |
#320000
0-
0W
0y
0{
#325000
1'
1(
1)
b101000 *
0+
1-
b1000 2
b110000110100011111 K
1Q
b101000 R
1W
b1000 _
0b
b1010 c
b1111 e
b0 f
b101000 g
1h
0i
0j
0k
0l
b0 o
b11 p
b0 q
0r
0s
1t
0u
b0 v
0w
0x
1y
b100 z
1{
b101000 |
#330000
0-
0W
0y
0{
#335000
1+
b11111111111111111111111111110111 ,
1-
b11111111111111111111111111110111 3
b110000110100011110 K
1W
0b
b1010 c
b1111 e
b0 f
b101000 g
1h
0i
0j
0k
0l
b0 o
b0 p
b10 q
0r
0s
1t
1u
b0 v
0w
0x
1y
b1000 z
1{
b101000 |
#340000
0-
0W
0y
0{
#345000
b101100 !!
b10111 "!
b11111111111111111111111111111111 #!
0'
0)
0+
1-
b11 H
b110000110100011101 K
0Q
1W
0b
b1010 c
b1111 e
b0 f
b101000 g
1h
0i
0j
0k
0l
b0 o
b10 p
b11 q
0r
0u
b0 v
0w
0x
1y
b1000 z
1{
b101000 |
#350000
0-
0W
0y
0{
#355000
1'
1(
1)
b101100 *
0+
1-
b1100 2
b110000110100011100 K
1Q
b101100 R
1W
b1100 _
0b
b1010 c
b1111 e
b0 f
b101000 g
1h
0i
0j
0k
0l
b0 o
b11 p
b0 q
0r
0s
1t
0u
b0 v
0w
0x
1y
b1000 z
1{
b101000 |
#360000
0-
0W
0y
0{
#365000
1+
b10111 ,
1-
b10111 3
b110000110100011011 K
1W
0b
b1010 c
b1111 e
b0 f
b101000 g
1h
0i
0j
0k
0l
b0 o
b0 p
b10 q
0r
0s
1t
1u
b0 v
0w
0x
1y
b1100 z
1{
b101000 |
#370000
0-
0W
0y
0{
#375000
b110000 !!
b111000 "!
b11111111111111111111111111111111 #!
0'
0)
0+
1-
b100 H
b110000110100011010 K
0Q
1W
0b
b1010 c
b1111 e
b0 f
b101000 g
1h
0i
0j
0k
0l
b0 o
b10 p
b11 q
0r
0u
b0 v
0w
0x
1y
b1100 z
1{
b101000 |
#380000
0-
0W
0y
0{
#385000
1'
1(
1)
b110000 *
0+
1-
b10000 2
b110000110100011001 K
1Q
b110000 R
1W
b10000 _
0b
b1010 c
b1111 e
b0 f
b101000 g
1h
0i
0j
0k
0l
b0 o
b11 p
b0 q
0r
0s
1t
0u
b0 v
0w
0x
1y
b1100 z
1{
b101000 |
#390000
0-
0W
0y
0{
#395000
1+
b111000 ,
1-
b111000 3
b110000110100011000 K
1W
0b
b1010 c
b1111 e
b0 f
b101000 g
1h
0i
0j
0k
0l
b0 o
b0 p
b10 q
0r
0s
1t
1u
b0 v
0w
0x
1y
b10000 z
1{
b101000 |
#400000
0-
0W
0y
0{
#405000
b110100 !!
b111111 "!
b11111111111111111111111111111111 #!
0'
0)
0+
1-
b101 H
b110000110100010111 K
0Q
1W
0b
b1010 c
b1111 e
b0 f
b101000 g
1h
0i
0j
0k
0l
b0 o
b10 p
b11 q
0r
0u
b0 v
0w
0x
1y
b10000 z
1{
b101000 |
#410000
0-
0W
0y
0{
#415000
1'
1(
1)
b110100 *
0+
1-
b10100 2
b110000110100010110 K
1Q
b110100 R
1W
b10100 _
0b
b1010 c
b1111 e
b0 f
b101000 g
1h
0i
0j
0k
0l
b0 o
b11 p
b0 q
0r
0s
1t
0u
b0 v
0w
0x
1y
b10000 z
1{
b101000 |
#420000
0-
0W
0y
0{
#425000
1+
b111111 ,
1-
b111111 3
b110000110100010101 K
1W
0b
b1010 c
b1111 e
b0 f
b101000 g
1h
0i
0j
0k
0l
b0 o
b0 p
b10 q
0r
0s
1t
1u
b0 v
0w
0x
1y
b10100 z
1{
b101000 |
#430000
0-
0W
0y
0{
#435000
b111000 !!
b111000 "!
b11111111111111111111111111111111 #!
0'
0)
0+
1-
b110 H
b110000110100010100 K
0Q
1W
0b
b1010 c
b1111 e
b0 f
b101000 g
1h
0i
0j
0k
0l
b0 o
b10 p
b11 q
0r
0u
b0 v
0w
0x
1y
b10100 z
1{
b101000 |
#440000
0-
0W
0y
0{
#445000
1'
1(
1)
b111000 *
0+
1-
b11000 2
b110000110100010011 K
1Q
b111000 R
1W
b11000 _
0b
b1010 c
b1111 e
b0 f
b101000 g
1h
0i
0j
0k
0l
b0 o
b11 p
b0 q
0r
0s
1t
0u
b0 v
0w
0x
1y
b10100 z
1{
b101000 |
#450000
0-
0W
0y
0{
#455000
1+
b111000 ,
1-
b111000 3
b110000110100010010 K
1W
0b
b1010 c
b1111 e
b0 f
b101000 g
1h
0i
0j
0k
0l
b0 o
b0 p
b10 q
0r
0s
1t
1u
b0 v
0w
0x
1y
b11000 z
1{
b101000 |
#460000
0-
0W
0y
0{
#465000
b111100 !!
b10111 "!
b11111111111111111111111111111111 #!
0'
0)
0+
1-
b111 H
b110000110100010001 K
0Q
1W
0b
b1010 c
b1111 e
b0 f
b101000 g
1h
0i
0j
0k
0l
b0 o
b10 p
b11 q
0r
0u
b0 v
0w
0x
1y
b11000 z
1{
b101000 |
#470000
0-
0W
0y
0{
#475000
1'
1(
1)
b111100 *
0+
1-
b11100 2
b110000110100010000 K
1Q
b111100 R
1W
b11100 _
0b
b1010 c
b1111 e
b0 f
b101000 g
1h
0i
0j
0k
0l
b0 o
b11 p
b0 q
0r
0s
1t
0u
b0 v
0w
0x
1y
b11000 z
1{
b101000 |
#480000
0-
0W
0y
0{
#485000
1+
b10111 ,
1-
b10111 3
b110000110100001111 K
1W
0b
b1010 c
b1111 e
b0 f
b101000 g
1h
0i
0j
0k
0l
b0 o
b0 p
b10 q
0r
0s
1t
1u
b0 v
0w
0x
1y
b11100 z
1{
b101000 |
#490000
0-
0W
0y
0{
#495000
b1000000 !!
b11111111111111111111111111110111 "!
b11111111111111111111111111111111 #!
0'
0)
0+
1-
b1000 H
b110000110100001110 K
0Q
1W
0b
b1010 c
b1111 e
b0 f
b101000 g
1h
0i
0j
0k
0l
b0 o
b10 p
b11 q
0r
0u
b0 v
0w
0x
1y
b11100 z
1{
b101000 |
#500000
0-
0W
0y
0{
#505000
1'
1(
1)
b1000000 *
0+
1-
b100000 2
b110000110100001101 K
1Q
b1000000 R
1W
b100000 _
0b
b1010 c
b1111 e
b0 f
b101000 g
1h
0i
0j
0k
0l
b0 o
b11 p
b0 q
0r
0s
1t
0u
b0 v
0w
0x
1y
b11100 z
1{
b101000 |
#510000
0-
0W
0y
0{
#515000
1+
b11111111111111111111111111110111 ,
1-
b11111111111111111111111111110111 3
b110000110100001100 K
1W
0b
b1010 c
b1111 e
b0 f
b101000 g
1h
0i
0j
0k
0l
b0 o
b0 p
b10 q
0r
0s
1t
1u
b0 v
0w
0x
1y
b100000 z
1{
b101000 |
#520000
0-
0W
0y
0{
#525000
b1000100 !!
b11111111111111111111111111110110 "!
b11111111111111111111111111111111 #!
0'
0)
0+
1-
b1001 H
b110000110100001011 K
0Q
1W
0b
b1010 c
b1111 e
b0 f
b101000 g
1h
0i
0j
0k
0l
b0 o
b10 p
b11 q
0r
0u
b0 v
0w
0x
1y
b100000 z
1{
b101000 |
#530000
0-
0W
0y
0{
#535000
1'
1(
1)
b1000100 *
0+
1-
b100100 2
b110000110100001010 K
1Q
b1000100 R
1W
b100100 _
0b
b1010 c
b1111 e
b0 f
b101000 g
1h
0i
0j
0k
0l
b0 o
b11 p
b0 q
0r
0s
1t
0u
b0 v
0w
0x
1y
b100000 z
1{
b101000 |
#540000
0-
0W
0y
0{
#545000
1+
b11111111111111111111111111110110 ,
1-
b11111111111111111111111111110110 3
b110000110100001001 K
1W
0b
b1010 c
b1111 e
b0 f
b101000 g
1h
0i
0j
0k
0l
b0 o
b0 p
b10 q
0r
0s
1t
1u
b0 v
0w
0x
1y
b100100 z
1{
b101000 |
#550000
0-
0W
0y
0{
#555000
b1001000 !!
b0 "!
b11111111111111111111111111111111 #!
0'
0)
0+
1-
b1010 H
b110000110100001000 K
0Q
1W
0b
b1010 c
b1111 e
b0 f
b101000 g
1h
0i
0j
0k
0l
b0 o
b10 p
b11 q
0r
0u
b0 v
0w
0x
1y
b100100 z
1{
b101000 |
#560000
0-
0W
0y
0{
#565000
1'
1(
1)
b1001000 *
0+
1-
b101000 2
b110000110100000111 K
1Q
b1001000 R
1W
b101000 _
0b
b1010 c
b1111 e
b0 f
b101000 g
1h
0i
0j
0k
0l
b0 o
b11 p
b0 q
0r
0s
1t
0u
b0 v
0w
0x
1y
b100100 z
1{
b101000 |
